<svg xmlns:dc="http://purl.org/dc/elements/1.1/" xmlns:cc="http://creativecommons.org/ns#" xmlns:rdf="http://www.w3.org/1999/02/22-rdf-syntax-ns#"  xmlns="http://www.w3.org/2000/svg" xmlns:sodipodi="http://sodipodi.sourceforge.net/DTD/sodipodi-0.dtd" xmlns:inkscape="http://www.inkscape.org/namespaces/inkscape" width="100%" height="100%" id="svg3671" version="1.1" inkscape:version="0.48.5 r10040" sodipodi:docname="New document 4" xmlns:xlink="http://www.w3.org/1999/xlink" viewBox="0.500023 0.369997 999 699.503" preserveAspectRatio="xMidYMid meet"><rect id="svgEditorBackground" x="0.5000228881835938" y="0.499969482421875" width="999" height="699.2431030273438" style="fill: none; stroke: none;"/>
  <defs id="defs3673"/>
  <sodipodi:namedview id="base" pagecolor="#ffffff" bordercolor="#666666" borderopacity="1.0" inkscape:pageopacity="0.0" inkscape:pageshadow="2" inkscape:zoom="0.57695313" inkscape:cx="621.35281" inkscape:cy="283.29076" inkscape:document-units="px" inkscape:current-layer="layer1" showgrid="false" fit-margin-left="0.5" fit-margin-bottom="0.5" fit-margin-top="0.5" fit-margin-right="0.5" inkscape:window-width="1256" inkscape:window-height="1041" inkscape:window-x="657" inkscape:window-y="-21" inkscape:window-maximized="0"/>
  <metadata id="metadata3676">
    <rdf:RDF>
      <cc:Work rdf:about="">
        <dc:format>image/svg+xml</dc:format>
        <dc:type rdf:resource="http://purl.org/dc/dcmitype/StillImage"/>
        <dc:title/>
      </cc:Work>
    </rdf:RDF>
  </metadata>
  <g inkscape:label="Layer 1" inkscape:groupmode="layer" id="layer1" transform="translate(124.99999,-182.24065)">
    <g id="g3003" transform="matrix(14.230769,0,0,-14.230769,291.22346,259.00334)">
      <path d="m 0,0 c 2.264,2.359 5.416,3.822 8.902,3.822 4.634,0 8.677,-2.584 10.83,-6.42 1.871,0.836 3.942,1.301 6.121,1.301 8.358,0 15.134,-6.835 15.134,-15.266 0,-8.432 -6.776,-15.267 -15.134,-15.267 -1.02,0 -2.017,0.102 -2.981,0.297 -1.896,-3.382 -5.509,-5.667 -9.656,-5.667 -1.736,0 -3.378,0.401 -4.84,1.114 -1.922,-4.521 -6.4,-7.691 -11.619,-7.691 -5.435,0 -10.067,3.439 -11.845,8.262 -0.777,-0.165 -1.582,-0.251 -2.408,-0.251 -6.471,0 -11.717,5.3 -11.717,11.839 0,4.382 2.357,8.208 5.859,10.255 -0.721,1.659 -1.122,3.49 -1.122,5.415 0,7.52 6.105,13.616 13.635,13.616 C -6.42,5.359 -2.491,3.257 0,0" style="fill:#00a1e0;fill-opacity:1;fill-rule:nonzero;stroke:none" id="path3005" inkscape:connector-curvature="0"/>
    </g>
    <g id="g3007" transform="matrix(14.230769,0,0,-14.230769,20.195613,545.3506)">
      
    </g>
    
    
    
    
    
    <g id="g3031" transform="matrix(14.230769,0,0,-14.230769,123.60065,539.3936)">
      
    </g>
    
    
    
  </g>
</svg>