<?xml version="1.0" encoding="UTF-8"?>
<svg width="24px" height="24px" viewBox="0 0 24 24" version="1.1" xmlns="http://www.w3.org/2000/svg" xmlns:xlink="http://www.w3.org/1999/xlink">
    <!-- Generator: Sketch 54.1 (76490) - https://sketchapp.com -->
    <title>icons/24/dislike gray</title>
    <desc>Created with Sketch.</desc>
    <g id="icons/24/dislike-gray" stroke="none" stroke-width="1" fill="none" fill-rule="evenodd">
        <g id="Group" transform="translate(12.500000, 14.500000) scale(1, -1) translate(-12.500000, -14.500000) translate(2.000000, 5.000000)">
            <g id="Group-3">
                <polygon id="Path" fill="#FFFFFF" points="2.01428571 8.9375 2.01428571 16.4375 3.58571429 16.4375 3.58571429 8.9375"></polygon>
                <path d="M10.5150031,6.1103302 C10.0583704,7.5558951 9.0431866,8.5496379 7.58085931,9.02277266 C7.49779499,9.05966419 7.44059386,9.14933555 7.44059386,9.25183439 L7.44059386,15.2016603 C7.44059386,15.9559883 8.02632,16.5610353 8.74059386,16.5610353 L16.0176355,16.5610353 C16.4888479,16.5610353 16.6912968,16.5942756 16.9909228,16.3165105 C17.1906735,16.1313337 17.1566225,15.7368462 16.8887698,15.1330478 C17.3761805,15.0866352 17.6600348,14.7996786 17.7403328,14.2721781 C17.8206309,13.7446776 17.6006847,13.3167995 17.0804944,12.9885438 C17.6716041,12.7746229 18.0080893,12.379984 18.0899502,11.8046271 C18.1718111,11.2292702 17.891059,10.7033789 17.2476939,10.2269531 L17.9292956,9.83490443 C18.3242128,9.67035098 18.5046085,9.22748125 18.5046085,8.5746672 C18.5046085,7.72594439 17.9292956,7.46719287 17.4457115,7.46719287 L12.7037533,7.46719287 L12.753289,6.65445885 C12.9057126,4.15364234 12.6931265,2.62245025 12.3972903,2.46634899 C12.0231028,2.26890473 11.6123202,2.1858449 11.1505562,2.21842963 C11.0813108,3.68882523 10.8702726,4.98565152 10.5150031,6.1103302 Z" id="Path" fill="#FFFFFF"></path>
                <path d="M2.01428571,8.9375 L2.01428571,16.4375 L3.58571429,16.4375 L3.58571429,8.9375 L2.01428571,8.9375 Z M1.77142857,7.40625 L3.82857143,7.40625 C4.53445835,7.40625 5.1,7.99044667 5.1,8.703125 L5.1,16.671875 C5.1,17.3845533 4.53445835,17.96875 3.82857143,17.96875 L1.77142857,17.96875 C1.06554165,17.96875 0.5,17.3845533 0.5,16.671875 L0.5,8.703125 C0.5,7.99044667 1.06554165,7.40625 1.77142857,7.40625 Z M10.5150031,6.1103302 C10.0583704,7.5558951 9.0431866,8.5496379 7.58085931,9.02277266 C7.49779499,9.05966419 7.44059386,9.14933555 7.44059386,9.25183439 L7.44059386,15.2016603 C7.44059386,15.9559883 8.02632,16.5610353 8.74059386,16.5610353 L16.0176355,16.5610353 C16.4888479,16.5610353 16.6912968,16.5942756 16.9909228,16.3165105 C17.1906735,16.1313337 17.1566225,15.7368462 16.8887698,15.1330478 C17.3761805,15.0866352 17.6600348,14.7996786 17.7403328,14.2721781 C17.8206309,13.7446776 17.6006847,13.3167995 17.0804944,12.9885438 C17.6716041,12.7746229 18.0080893,12.379984 18.0899502,11.8046271 C18.1718111,11.2292702 17.891059,10.7033789 17.2476939,10.2269531 L17.9292956,9.83490443 C18.3242128,9.67035098 18.5046085,9.22748125 18.5046085,8.5746672 C18.5046085,7.72594439 17.9292956,7.46719287 17.4457115,7.46719287 L12.7037533,7.46719287 L12.753289,6.65445885 C12.9057126,4.15364234 12.6931265,2.62245025 12.3972903,2.46634899 C12.0231028,2.26890473 11.6123202,2.1858449 11.1505562,2.21842963 C11.0813108,3.68882523 10.8702726,4.98565152 10.5150031,6.1103302 Z M17.7896975,17.7360868 C17.3202737,17.9781319 16.7313932,18.0922853 16.0176355,18.0922853 L8.74059386,18.0922853 C7.18261047,18.0922853 5.92630815,16.7945425 5.92630815,15.2016603 L5.92630815,9.25183439 C5.92630815,8.53594174 6.34612433,7.8875943 7.03710396,7.59495177 C8.11422383,7.24610532 8.76554316,6.61615222 9.0725314,5.6443177 C9.40006938,4.60742875 9.59217622,3.37779753 9.64598625,1.95711534 C9.66979154,1.33003018 10.1314688,0.806541497 10.7467112,0.722016495 C11.5963059,0.605295021 12.387214,0.733810632 13.0979167,1.10882084 C14.0746492,1.62420475 14.4074117,3.16158512 14.3048777,5.93594287 L17.4457115,5.93594287 C19.078538,5.93594287 20.0188942,6.87377342 20.0188942,8.5746672 C20.0188942,9.42805631 19.777042,10.1239323 19.2953159,10.6129227 C19.4992611,10.9874344 19.6042359,11.387178 19.6042359,11.8046271 C19.6042359,12.3460304 19.390675,12.8351145 18.9899602,13.2560625 C19.1641977,13.5913329 19.2546186,13.9303631 19.2546186,14.2721781 C19.2546186,14.7929587 19.0027635,15.2775818 18.5310257,15.7413077 C18.6424238,16.7182294 18.4302312,17.4058137 17.7896975,17.7360868 Z" id="Shape" fill="#979797"></path>
            </g>
        </g>
    </g>
</svg>