<?xml version="1.0" encoding="UTF-8"?>
<svg width="24px" height="24px" viewBox="0 0 24 24" version="1.1" xmlns="http://www.w3.org/2000/svg" xmlns:xlink="http://www.w3.org/1999/xlink">
    <!-- Generator: Sketch 54.1 (76490) - https://sketchapp.com -->
    <title>icons/24/response gray</title>
    <desc>Created with Sketch.</desc>
    <g id="icons/24/response-gray" stroke="none" stroke-width="1" fill="none" fill-rule="evenodd">
        <path d="M12.5785714,5.75 L5.7,5.75 C4.62927049,5.75 3.75,6.66183606 3.75,7.8 L3.75,16.2 C3.75,17.3381639 4.62927049,18.25 5.7,18.25 L18.3,18.25 C19.3707295,18.25 20.25,17.3381639 20.25,16.2 L20.25,13.0050032 C20.25,12.5907897 20.5857864,12.2550032 21,12.2550032 C21.4142136,12.2550032 21.75,12.5907897 21.75,13.0050032 L21.75,16.2 C21.75,18.1546307 20.2116081,19.75 18.3,19.75 L5.7,19.75 C3.78839187,19.75 2.25,18.1546307 2.25,16.2 L2.25,7.8 C2.25,5.84536934 3.78839187,4.25 5.7,4.25 L12.5785714,4.25 C12.992785,4.25 13.3285714,4.58578644 13.3285714,5 C13.3285714,5.41421356 12.992785,5.75 12.5785714,5.75 Z M5.5,11.5564838 C5.5,11.4194776 5.55288409,11.3007406 5.65865385,11.2002693 L10.4465909,6.97953915 C10.5294494,6.9064966 10.6558321,6.91445395 10.7288746,6.9973124 C10.7610779,7.03384337 10.7788462,7.08086894 10.7788462,7.12956765 L10.7788462,9.55620247 C14.3514123,9.42685866 17.7331996,7.91139616 20.2074034,5.33103285 L21.5,3.98297533 C20.778585,9.07971874 16.6502839,13.0132633 11.5246506,13.4877282 L10.7788462,13.5567651 L10.7788462,15.8380226 C10.7788462,15.9484795 10.6893031,16.0380226 10.5788462,16.0380226 C10.5313411,16.0380226 10.4853872,16.0211131 10.4492122,15.9903218 L5.65865385,11.9126983 C5.55288409,11.812227 5.5,11.6934901 5.5,11.5564838 Z" id="Shape" fill="#979797"></path>
    </g>
</svg>